
[2017-11-28 12:32:40.000000 79.150.129.73  - OK ] Mail enviado
[2017-11-28 13:02:17.000000 79.150.129.73  - OK ] Mail enviado
[2017-11-28 13:05:16.000000 79.150.129.73  - OK ] Mail enviado
[2017-11-28 13:09:49.000000 79.150.129.73  - OK ] Mail enviado
