"Tabla 1";"";"";"";"";"";"";"";"";"";"";"";"";"";"";"";"";"";"";"";"";"";"";"";"";"";"";"";"";"";"";"";"";"";"";"";"";"";"";"";"";"";"";"";"";"";"";"";"";"";"";"";"";"";""
"Product ID";"Active (0/1)";"Name *";"Categories (x,y,z...)";"Price tax excluded or Price tax included";"Tax rules ID";"Wholesale price";"On sale (0/1)";"Discount amount";"Discount percent";"Discount from (yyyy-mm-dd)";"Discount to (yyyy-mm-dd)";"Reference #";"Supplier reference #";"Supplier";"Manufacturer";"EAN13";"UPC";"Ecotax";"Width";"Height";"Depth";"Weight";"Quantity";"Minimal quantity";"Visibility";"Additional shipping cost";"Unity";"Unit price";"Short description";"Description";"Tags (x,y,z...)";"Meta title";"Meta keywords";"Meta description";"URL rewritten";"Text when in stock";"Text when backorder allowed";"Available for order (0 = No, 1 = Yes)";"Product available date";"Product creation date";"Show price (0 = No, 1 = Yes)";"Image URLs (x,y,z...)";"Delete existing images (0 = No, 1 = Yes)";"Feature(Name:Value:Position)";"Available online only (0 = No, 1 = Yes)";"Condition";"Customizable (0 = No, 1 = Yes)";"Uploadable files (0 = No, 1 = Yes)";"Text fields (0 = No, 1 = Yes)";"Out of stock";"ID / Name of shop";"Advanced stock management";"Depends On Stock";"Warehouse"
"1";"0";"ITACA NEGRO";"Sandalias";"69";"11";"";"0";"";"";"";"";"18001";"";"";"";"";"";"";"1";"1";"";"";"0";"1";"";"";"";"";"";"Exterior: raso
Forro: piel
Suela interior: piel
Suela exterior: goma
País de fabricación: EspañaExterior: raso
Forro: piel
Suela interior: piel
Suela exterior: goma
País de fabricación: EspañaExterior: raso
Forro: piel
Suela interior: piel
Suela exterior:";"";"";"";"";"";"";"";"1";"";"";"1";"";"0";"";"0";"new";"0";"0";"0";"0";"";"";"";""
"2";"0";"ITACA CHAMPÁN";"Sandalias";"69";"11";"";"0";"";"";"";"";"18002";"";"";"";"";"";"";"1";"1";"";"";"0";"1";"";"";"";"";"";"Exterior: raso
Forro: piel
Suela interior: piel
Suela exterior: goma
País de fabricación: EspañaExterior: raso
Forro: piel
Suela interior: piel
Suela exterior: goma
País de fabricación: EspañaExterior: raso
Forro: piel
Suela interior: piel
Suela exterior:";"";"";"";"";"";"";"";"1";"";"";"1";"";"0";"";"0";"new";"0";"0";"0";"0";"";"";"";""
"3";"0";"ITACA CUERO";"Sandalias";"69";"11";"";"0";"";"";"";"";"18003";"";"";"";"";"";"";"1";"1";"";"";"0";"1";"";"";"";"";"";"Exterior: rafia
Forro: piel
Suela interior: piel
Suela exterior: goma
País de fabricación: EspañaExterior: rafia
Forro: piel
Suela interior: piel
Suela exterior: goma
País de fabricación: EspañaExterior: rafia
Forro: piel
Suela interior: piel
Suela exteri";"";"";"";"";"";"";"";"1";"";"";"1";"";"0";"";"0";"new";"0";"0";"0";"0";"";"";"";""
"4";"0";"FORMENTERA NEGRO";"Sandalias";"59";"11";"";"0";"";"";"";"";"18004";"";"";"";"";"";"";"1";"1";"";"";"0";"1";"";"";"";"";"";"Exterior: serraje
Forro: piel
Suela interior: piel
Suela exterior: goma
País de fabricación: EspañaExterior: serraje
Forro: piel
Suela interior: piel
Suela exterior: goma
País de fabricación: EspañaExterior: serraje
Forro: piel
Suela interior: piel
Suela ";"";"";"";"";"";"";"";"1";"";"";"1";"";"0";"";"0";"new";"0";"0";"0";"0";"";"";"";""
"5";"0";"FORMENTERA TAUPE";"Sandalias";"59";"11";"";"0";"";"";"";"";"18005";"";"";"";"";"";"";"1";"1";"";"";"0";"1";"";"";"";"";"";"Exterior: serraje
Forro: piel
Suela interior: piel
Suela exterior: goma
País de fabricación: EspañaExterior: serraje
Forro: piel
Suela interior: piel
Suela exterior: goma
País de fabricación: EspañaExterior: serraje
Forro: piel
Suela interior: piel
Suela ";"";"";"";"";"";"";"";"1";"";"";"1";"";"0";"";"0";"new";"0";"0";"0";"0";"";"";"";""
"6";"0";"FORMENTERA ROSA";"Sandalias";"59";"11";"";"0";"";"";"";"";"18006";"";"";"";"";"";"";"1";"1";"";"";"0";"1";"";"";"";"";"";"Exterior: serraje
Forro: piel
Suela interior: piel
Suela exterior: goma
País de fabricación: EspañaExterior: serraje
Forro: piel
Suela interior: piel
Suela exterior: goma
País de fabricación: EspañaExterior: serraje
Forro: piel
Suela interior: piel
Suela ";"";"";"";"";"";"";"";"1";"";"";"1";"";"0";"";"0";"new";"0";"0";"0";"0";"";"";"";""
"7";"0";"FORMENTERA BLANCO";"Sandalias";"59";"11";"";"0";"";"";"";"";"18007";"";"";"";"";"";"";"1";"1";"";"";"0";"1";"";"";"";"";"";"Exterior: piel
Suela interior: piel
Suela exterior: goma
País de fabricación: EspañaExterior: piel
Suela interior: piel
Suela exterior: goma
País de fabricación: EspañaExterior: piel
Suela interior: piel
Suela exterior: goma
País de fabricación: EspañaExt";"";"";"";"";"";"";"";"1";"";"";"1";"";"0";"";"0";"new";"0";"0";"0";"0";"";"";"";""
"8";"0";"MIKONOS CUERO";"Sandalias";"59";"11";"";"0";"";"";"";"";"18008";"";"";"";"";"";"";"1";"1";"";"";"0";"1";"";"";"";"";"";"Exterior: rafia
Forro: piel
Suela interior: piel
Suela exterior: goma
País de fabricación: EspañaExterior: rafia
Forro: piel
Suela interior: piel
Suela exterior: goma
País de fabricación: EspañaExterior: rafia
Forro: piel
Suela interior: piel
Suela exteri";"";"";"";"";"";"";"";"1";"";"";"1";"";"0";"";"0";"new";"0";"0";"0";"0";"";"";"";""
"9";"0";"MIKONOS PLATA";"Sandalias";"59";"11";"";"0";"";"";"";"";"18009";"";"";"";"";"";"";"1";"1";"";"";"0";"1";"";"";"";"";"";"Exterior: piel metalizada
Suela interior: piel
Suela exterior: goma
País de fabricación: EspañaExterior: piel metalizada
Suela interior: piel
Suela exterior: goma
País de fabricación: EspañaExterior: piel metalizada
Suela interior: piel
Suela exterior: go";"";"";"";"";"";"";"";"1";"";"";"1";"";"0";"";"0";"new";"0";"0";"0";"0";"";"";"";""
"10";"0";"MIKONOS BEIGE";"Sandalias";"59";"11";"";"0";"";"";"";"";"18010";"";"";"";"";"";"";"1";"1";"";"";"0";"1";"";"";"";"";"";"Exterior: serraje
Forro: piel
Suela interior: piel
Suela exterior: goma
País de fabricación: EspañaExterior: serraje
Forro: piel
Suela interior: piel
Suela exterior: goma
País de fabricación: EspañaExterior: serraje
Forro: piel
Suela interior: piel
Suela ";"";"";"";"";"";"";"";"1";"";"";"1";"";"0";"";"0";"new";"0";"0";"0";"0";"";"";"";""
"11";"0";"COMINO CUERO";"Sandalias";"69.9";"11";"";"0";"";"";"";"";"18011";"";"";"";"";"";"";"1";"1";"";"";"0";"1";"";"";"";"";"";"Exterior: serraje
Forro: piel
Suela interior: piel
Suela exterior: goma
País de fabricación: EspañaExterior: serraje
Forro: piel
Suela interior: piel
Suela exterior: goma
País de fabricación: EspañaExterior: serraje
Forro: piel
Suela interior: piel
Suela ";"";"";"";"";"";"";"";"1";"";"";"1";"";"0";"";"0";"new";"0";"0";"0";"0";"";"";"";""
"12";"0";"COMINO NEGRO";"Sandalias";"69.9";"11";"";"0";"";"";"";"";"18012";"";"";"";"";"";"";"1";"1";"";"";"0";"1";"";"";"";"";"";"Exterior: piel
Suela interior: piel
Suela exterior: goma
País de fabricación: EspañaExterior: piel
Suela interior: piel
Suela exterior: goma
País de fabricación: EspañaExterior: piel
Suela interior: piel
Suela exterior: goma
País de fabricación: EspañaExt";"";"";"";"";"";"";"";"1";"";"";"1";"";"0";"";"0";"new";"0";"0";"0";"0";"";"";"";""
"13";"0";"COMINO BLANCO";"Sandalias";"69.9";"11";"";"0";"";"";"";"";"18013";"";"";"";"";"";"";"1";"1";"";"";"0";"1";"";"";"";"";"";"Exterior: piel
Suela interior: piel
Suela exterior: goma
País de fabricación: EspañaExterior: piel
Suela interior: piel
Suela exterior: goma
País de fabricación: EspañaExterior: piel
Suela interior: piel
Suela exterior: goma
País de fabricación: EspañaExt";"";"";"";"";"";"";"";"1";"";"";"1";"";"0";"";"0";"new";"0";"0";"0";"0";"";"";"";""
"14";"0";"GOZO CUERO";"Sandalias";"59";"11";"";"0";"";"";"";"";"18014";"";"";"";"";"";"";"1";"1";"";"";"0";"1";"";"";"";"";"";"Exterior: serraje
Forro: piel
Suela interior: piel
Suela exterior: goma
País de fabricación: EspañaExterior: serraje
Forro: piel
Suela interior: piel
Suela exterior: goma
País de fabricación: EspañaExterior: serraje
Forro: piel
Suela interior: piel
Suela ";"";"";"";"";"";"";"";"1";"";"";"1";"";"0";"";"0";"new";"0";"0";"0";"0";"";"";"";""
"15";"0";"GOZO NEGRO";"Sandalias";"59";"11";"";"0";"";"";"";"";"18015";"";"";"";"";"";"";"1";"1";"";"";"0";"1";"";"";"";"";"";"Exterior: serraje
Forro: piel
Suela interior: piel
Suela exterior: goma
País de fabricación: EspañaExterior: serraje
Forro: piel
Suela interior: piel
Suela exterior: goma
País de fabricación: EspañaExterior: serraje
Forro: piel
Suela interior: piel
Suela ";"";"";"";"";"";"";"";"1";"";"";"1";"";"0";"";"0";"new";"0";"0";"0";"0";"";"";"";""
"16";"0";"MALLORCA NEGRO";"Sandalias";"59";"11";"";"0";"";"";"";"";"18016";"";"";"";"";"";"";"1";"1";"";"";"0";"1";"";"";"";"";"";"Exterior: serraje
Forro: piel
Suela interior: piel
Suela exterior: goma
País de fabricación: EspañaExterior: serraje
Forro: piel
Suela interior: piel
Suela exterior: goma
País de fabricación: EspañaExterior: serraje
Forro: piel
Suela interior: piel
Suela ";"";"";"";"";"";"";"";"1";"";"";"1";"";"0";"";"0";"new";"0";"0";"0";"0";"";"";"";""
"17";"0";"MALLORCA CUERO";"Sandalias";"59";"11";"";"0";"";"";"";"";"18017";"";"";"";"";"";"";"1";"1";"";"";"0";"1";"";"";"";"";"";"Exterior: serraje
Forro: piel
Suela interior: piel
Suela exterior: goma
País de fabricación: EspañaExterior: serraje
Forro: piel
Suela interior: piel
Suela exterior: goma
País de fabricación: EspañaExterior: serraje
Forro: piel
Suela interior: piel
Suela ";"";"";"";"";"";"";"";"1";"";"";"1";"";"0";"";"0";"new";"0";"0";"0";"0";"";"";"";""
"18";"0";"NAXOS GRIS";"Sandalias";"69";"11";"";"0";"";"";"";"";"18018";"";"";"";"";"";"";"1";"1";"";"";"0";"1";"";"";"";"";"";"Exterior: serraje
Forro: piel
Suela interior: piel
Suela exterior: goma
País de fabricación: EspañaExterior: serraje
Forro: piel
Suela interior: piel
Suela exterior: goma
País de fabricación: EspañaExterior: serraje
Forro: piel
Suela interior: piel
Suela ";"";"";"";"";"";"";"";"1";"";"";"1";"";"0";"";"0";"new";"0";"0";"0";"0";"";"";"";""
"19";"0";"NAXOS TAUPE";"Sandalias";"69";"11";"";"0";"";"";"";"";"18019";"";"";"";"";"";"";"1";"1";"";"";"0";"1";"";"";"";"";"";"Exterior: serraje
Forro: piel
Suela interior: piel
Suela exterior: goma
País de fabricación: EspañaExterior: serraje
Forro: piel
Suela interior: piel
Suela exterior: goma
País de fabricación: EspañaExterior: serraje
Forro: piel
Suela interior: piel
Suela ";"";"";"";"";"";"";"";"1";"";"";"1";"";"0";"";"0";"new";"0";"0";"0";"0";"";"";"";""
"20";"0";"LEUCADE LEOPARDO";"Sandalias";"65";"11";"";"0";"";"";"";"";"18020";"";"";"";"";"";"";"1";"1";"";"";"0";"1";"";"";"";"";"";"Exterior: serraje
Forro: piel
Suela interior: piel
Suela exterior: goma
País de fabricación: EspañaExterior: serraje
Forro: piel
Suela interior: piel
Suela exterior: goma
País de fabricación: EspañaExterior: serraje
Forro: piel
Suela interior: piel
Suela ";"";"";"";"";"";"";"";"1";"";"";"1";"";"0";"";"0";"new";"0";"0";"0";"0";"";"";"";""
"21";"0";"LEUCADE ROSA";"Sandalias";"63";"11";"";"0";"";"";"";"";"18021";"";"";"";"";"";"";"1";"1";"";"";"0";"1";"";"";"";"";"";"Exterior: serraje
Forro: piel
Suela interior: piel
Suela exterior: goma
País de fabricación: EspañaExterior: serraje
Forro: piel
Suela interior: piel
Suela exterior: goma
País de fabricación: EspañaExterior: serraje
Forro: piel
Suela interior: piel
Suela ";"";"";"";"";"";"";"";"1";"";"";"1";"";"0";"";"0";"new";"0";"0";"0";"0";"";"";"";""
"22";"0";"LEUCADE BEIGE";"Sandalias";"63";"11";"";"0";"";"";"";"";"18022";"";"";"";"";"";"";"1";"1";"";"";"0";"1";"";"";"";"";"";"Exterior: serraje
Forro: piel
Suela interior: piel
Suela exterior: goma
País de fabricación: EspañaExterior: serraje
Forro: piel
Suela interior: piel
Suela exterior: goma
País de fabricación: EspañaExterior: serraje
Forro: piel
Suela interior: piel
Suela ";"";"";"";"";"";"";"";"1";"";"";"1";"";"0";"";"0";"new";"0";"0";"0";"0";"";"";"";""
"23";"0";"MAUI CUERO";"Sandalias";"48.5";"11";"";"0";"";"";"";"";"18023";"";"";"";"";"";"";"1";"1";"";"";"0";"1";"";"";"";"";"";"Exterior: piel
Suela interior: piel
Suela exterior: goma
País de fabricación: EspañaExterior: piel
Suela interior: piel
Suela exterior: goma
País de fabricación: EspañaExterior: piel
Suela interior: piel
Suela exterior: goma
País de fabricación: EspañaExt";"";"";"";"";"";"";"";"1";"";"";"1";"";"0";"";"0";"new";"0";"0";"0";"0";"";"";"";""
"24";"0";"MOLOKAI CUERO";"Sandalias";"49.5";"11";"";"0";"";"";"";"";"18024";"";"";"";"";"";"";"1";"1";"";"";"0";"1";"";"";"";"";"";"Exterior: piel
Suela interior: piel
Suela exterior: goma
País de fabricación: EspañaExterior: piel
Suela interior: piel
Suela exterior: goma
País de fabricación: EspañaExterior: piel
Suela interior: piel
Suela exterior: goma
País de fabricación: EspañaExt";"";"";"";"";"";"";"";"1";"";"";"1";"";"0";"";"0";"new";"0";"0";"0";"0";"";"";"";""
"25";"0";"BORA BORA NEGRO";"Sandalias";"59.9";"11";"";"0";"";"";"";"";"18025";"";"";"";"";"";"";"1";"1";"";"";"0";"1";"";"";"";"";"";"Exterior: piel
Suela interior: piel
Suela exterior: goma
País de fabricación: EspañaExterior: piel
Suela interior: piel
Suela exterior: goma
País de fabricación: EspañaExterior: piel
Suela interior: piel
Suela exterior: goma
País de fabricación: EspañaExt";"";"";"";"";"";"";"";"1";"";"";"1";"";"0";"";"0";"new";"0";"0";"0";"0";"";"";"";""
"26";"0";"BORA BORA FUXIA";"Sandalias";"59.9";"11";"";"0";"";"";"";"";"18026";"";"";"";"";"";"";"1";"1";"";"";"0";"1";"";"";"";"";"";"Exterior: piel
Suela interior: piel
Suela exterior: goma
País de fabricación: EspañaExterior: piel
Suela interior: piel
Suela exterior: goma
País de fabricación: EspañaExterior: piel
Suela interior: piel
Suela exterior: goma
País de fabricación: EspañaExt";"";"";"";"";"";"";"";"1";"";"";"1";"";"0";"";"0";"new";"0";"0";"0";"0";"";"";"";""
"27";"0";"YAP ROSA";"Sandalias";"54.99";"11";"";"0";"";"";"";"";"18027";"";"";"";"";"";"";"1";"1";"";"";"0";"1";"";"";"";"";"";"Exterior: piel
Suela interior: piel
Suela exterior: goma
País de fabricación: EspañaExterior: piel
Suela interior: piel
Suela exterior: goma
País de fabricación: EspañaExterior: piel
Suela interior: piel
Suela exterior: goma
País de fabricación: EspañaExt";"";"";"";"";"";"";"";"1";"";"";"1";"";"0";"";"0";"new";"0";"0";"0";"0";"";"";"";""
"28";"0";"YAP CUERO";"Sandalias";"54.99";"11";"";"0";"";"";"";"";"18028";"";"";"";"";"";"";"1";"1";"";"";"0";"1";"";"";"";"";"";"Exterior: piel
Suela interior: piel
Suela exterior: goma
País de fabricación: EspañaExterior: piel
Suela interior: piel
Suela exterior: goma
País de fabricación: EspañaExterior: piel
Suela interior: piel
Suela exterior: goma
País de fabricación: EspañaExt";"";"";"";"";"";"";"";"1";"";"";"1";"";"0";"";"0";"new";"0";"0";"0";"0";"";"";"";""
"29";"0";"BRAC GRIS";"Deportivos";"99";"11";"";"0";"";"";"";"";"18029";"";"";"";"";"";"";"1";"1";"";"";"0";"1";"";"";"";"";"";"Exterior: piel + raso
Forro: piel
Suela interior: piel
Suela exterior: goma
País de fabricación: EspañaExterior: piel + raso
Forro: piel
Suela interior: piel
Suela exterior: goma
País de fabricación: EspañaExterior: piel + raso
Forro: piel
Suela interior:";"";"";"";"";"";"";"";"1";"";"";"1";"";"0";"";"0";"new";"0";"0";"0";"0";"";"";"";""
"30";"0";"BRAC PLATA";"Deportivos";"99";"11";"";"0";"";"";"";"";"18030";"";"";"";"";"";"";"1";"1";"";"";"0";"1";"";"";"";"";"";"Exterior: piel metalizada
Forro: piel
Suela interior: piel
Suela exterior: goma
País de fabricación: EspañaExterior: piel metalizada
Forro: piel
Suela interior: piel
Suela exterior: goma
País de fabricación: EspañaExterior: piel metalizada
Forro: piel
Sue";"";"";"";"";"";"";"";"1";"";"";"1";"";"0";"";"0";"new";"0";"0";"0";"0";"";"";"";""
"31";"0";"CODIGO - MIB ROSA";"Deportivos";"85";"11";"";"0";"";"";"";"";"18031";"";"";"";"";"";"";"1";"1";"";"";"0";"1";"";"";"";"";"";"Exterior: piel
Forro: piel
Suela interior: piel
Suela exterior: goma
País de fabricación: EspañaExterior: piel
Forro: piel
Suela interior: piel
Suela exterior: goma
País de fabricación: EspañaExterior: piel
Forro: piel
Suela interior: piel
Suela exterior:";"";"";"";"";"";"";"";"1";"";"";"1";"";"0";"";"0";"new";"0";"0";"0";"0";"";"";"";""
"32";"0";"CODIGO - MIB BLANCO";"Deportivos";"85";"11";"";"0";"";"";"";"";"18032";"";"";"";"";"";"";"1";"1";"";"";"0";"1";"";"";"";"";"";"Exterior: piel
Forro: piel
Suela interior: piel
Suela exterior: goma
País de fabricación: EspañaExterior: piel
Forro: piel
Suela interior: piel
Suela exterior: goma
País de fabricación: EspañaExterior: piel
Forro: piel
Suela interior: piel
Suela exterior:";"";"";"";"";"";"";"";"1";"";"";"1";"";"0";"";"0";"new";"0";"0";"0";"0";"";"";"";""
"33";"0";"CODIGO - MIB PLATA";"Deportivos";"85";"11";"";"0";"";"";"";"";"18033";"";"";"";"";"";"";"1";"1";"";"";"0";"1";"";"";"";"";"";"Exterior: piel metalizada
Forro: piel
Suela interior: piel
Suela exterior: goma
País de fabricación: EspañaExterior: piel metalizada
Forro: piel
Suela interior: piel
Suela exterior: goma
País de fabricación: EspañaExterior: piel metalizada
Forro: piel
Sue";"";"";"";"";"";"";"";"1";"";"";"1";"";"0";"";"0";"new";"0";"0";"0";"0";"";"";"";""
"34";"0";"FIVE ANIMAL PRINT";"Deportivos";"95";"11";"";"0";"";"";"";"";"18034";"";"";"";"";"";"";"1";"1";"";"";"0";"1";"";"";"";"";"";"Exterior: piel
Forro: piel
Suela interior: piel
Suela exterior: goma
País de fabricación: EspañaExterior: piel
Forro: piel
Suela interior: piel
Suela exterior: goma
País de fabricación: EspañaExterior: piel
Forro: piel
Suela interior: piel
Suela exterior:";"";"";"";"";"";"";"";"1";"";"";"1";"";"0";"";"0";"new";"0";"0";"0";"0";"";"";"";""
